|         ___     _ _____    ___  
| __   __/ _ \   / |___  |  / _ \ 
| \ \ / / | | |  | |  / /  | | | |
|  \ V /| |_| |  | | / /_  | |_| |
|   \_/  \___(_) |_|/_/(_)  \___/ 
|                                 
